<?xml version="1.0" encoding="UTF-8" standalone="no"?>
<!-- Created with Inkscape (http://www.inkscape.org/) -->

<svg
   xmlns:dc="http://purl.org/dc/elements/1.1/"
   xmlns:cc="http://creativecommons.org/ns#"
   xmlns:rdf="http://www.w3.org/1999/02/22-rdf-syntax-ns#"
   xmlns:svg="http://www.w3.org/2000/svg"
   xmlns="http://www.w3.org/2000/svg"
   xmlns:sodipodi="http://sodipodi.sourceforge.net/DTD/sodipodi-0.dtd"
   xmlns:inkscape="http://www.inkscape.org/namespaces/inkscape"
   width="18.570999"
   height="20"
   viewBox="0 0 18.570998 20"
   id="svg3607"
   version="1.1"
   inkscape:version="0.91 r13725"
   sodipodi:docname="btn-g3-ganaron-inactive.svg">
  <defs
     id="defs3609" />
  <sodipodi:namedview
     id="base"
     pagecolor="#ffffff"
     bordercolor="#666666"
     borderopacity="1.0"
     inkscape:pageopacity="0.0"
     inkscape:pageshadow="2"
     inkscape:zoom="0.35"
     inkscape:cx="-106.42857"
     inkscape:cy="520"
     inkscape:document-units="px"
     inkscape:current-layer="layer1"
     showgrid="false"
     units="px"
     inkscape:window-width="1366"
     inkscape:window-height="744"
     inkscape:window-x="0"
     inkscape:window-y="24"
     inkscape:window-maximized="1" />
  <metadata
     id="metadata3612">
    <rdf:RDF>
      <cc:Work
         rdf:about="">
        <dc:format>image/svg+xml</dc:format>
        <dc:type
           rdf:resource="http://purl.org/dc/dcmitype/StillImage" />
        <dc:title></dc:title>
      </cc:Work>
    </rdf:RDF>
  </metadata>
  <g
     inkscape:label="Layer 1"
     inkscape:groupmode="layer"
     id="layer1"
     transform="translate(0,-1032.3622)">
    <g
       id="g3406"
       transform="matrix(0.67419518,0,0,-0.67419518,9.2892307,1032.3622)"
       inkscape:export-xdpi="90"
       inkscape:export-ydpi="90">
      <path
         d="m 0,0 c 0.769,0 1.535,-0.293 2.122,-0.878 l 10.766,-10.761 c 1.172,-1.172 1.172,-3.071 10e-4,-4.243 -1.174,-1.172 -3.073,-1.171 -4.243,-10e-4 L 0,-7.24 -8.66,-15.884 c -1.172,-1.172 -3.071,-1.169 -4.242,0.004 -1.17,1.172 -1.168,3.071 0.004,4.242 l 10.78,10.761 C -1.533,-0.292 -0.768,0 0,0"
         style="fill:#666666;fill-opacity:1;fill-rule:nonzero;stroke:none"
         id="path3408"
         inkscape:connector-curvature="0" />
    </g>
    <g
       id="g3410"
       transform="matrix(0.67419518,0,0,-0.67419518,9.2892307,1032.3622)"
       inkscape:export-xdpi="90"
       inkscape:export-ydpi="90">
      <path
         d="M 0,0 0.002,0 C 1.66,-0.001 3.002,-1.345 3,-3.002 L 2.985,-26.667 c -10e-4,-1.656 -1.343,-2.998 -3,-2.998 l -0.001,0 c -1.658,10e-4 -3,1.345 -2.999,3.002 L -3,-2.998 C -2.998,-1.342 -1.655,0 0,0"
         style="fill:#666666;fill-opacity:1;fill-rule:nonzero;stroke:none"
         id="path3412"
         inkscape:connector-curvature="0" />
    </g>
  </g>
</svg>
