<?xml version="1.0" encoding="UTF-8" standalone="no"?>
<!-- Created with Inkscape (http://www.inkscape.org/) -->

<svg
   xmlns:dc="http://purl.org/dc/elements/1.1/"
   xmlns:cc="http://creativecommons.org/ns#"
   xmlns:rdf="http://www.w3.org/1999/02/22-rdf-syntax-ns#"
   xmlns:svg="http://www.w3.org/2000/svg"
   xmlns="http://www.w3.org/2000/svg"
   xmlns:sodipodi="http://sodipodi.sourceforge.net/DTD/sodipodi-0.dtd"
   xmlns:inkscape="http://www.inkscape.org/namespaces/inkscape"
   width="49.999001"
   height="50"
   viewBox="0 0 49.999001 50.000001"
   id="svg29003"
   version="1.1"
   inkscape:version="0.91 r13725"
   sodipodi:docname="graph-3-button-active.svg">
  <defs
     id="defs29005" />
  <sodipodi:namedview
     id="base"
     pagecolor="#ffffff"
     bordercolor="#666666"
     borderopacity="1.0"
     inkscape:pageopacity="0.0"
     inkscape:pageshadow="2"
     inkscape:zoom="0.35"
     inkscape:cx="375"
     inkscape:cy="177.14286"
     inkscape:document-units="px"
     inkscape:current-layer="layer1"
     showgrid="false"
     units="px"
     inkscape:window-width="1366"
     inkscape:window-height="744"
     inkscape:window-x="0"
     inkscape:window-y="24"
     inkscape:window-maximized="1" />
  <metadata
     id="metadata29008">
    <rdf:RDF>
      <cc:Work
         rdf:about="">
        <dc:format>image/svg+xml</dc:format>
        <dc:type
           rdf:resource="http://purl.org/dc/dcmitype/StillImage" />
        <dc:title></dc:title>
      </cc:Work>
    </rdf:RDF>
  </metadata>
  <g
     inkscape:label="Layer 1"
     inkscape:groupmode="layer"
     id="layer1"
     transform="translate(0,-1002.3622)">
    <path
       inkscape:connector-curvature="0"
       id="path1202"
       style="fill:#00da51;fill-opacity:1;fill-rule:nonzero;stroke:none"
       d="m 49.99934,1045.7715 c 0,3.64 -2.95067,6.5907 -6.59074,6.5907 l -36.81786,0 C 2.95067,1052.3622 0,1049.4115 0,1045.7715 l 0,-36.8186 c 0,-3.64 2.95067,-6.5907 6.59074,-6.5907 l 36.81786,0 c 3.64007,0 6.59074,2.9507 6.59074,6.5907 l 0,36.8186 z" />
    <g
       id="g1218"
       transform="matrix(0.65907413,0,0,-0.65907413,32.68065,1040.6122)">
      <path
         d="m 0,0 c -0.691,0 -1.382,0.264 -1.909,0.79 l -9.689,9.685 c -1.054,1.054 -1.054,2.764 -0.002,3.819 1.055,1.055 2.765,1.054 3.819,0 L 0,6.516 7.794,14.295 c 1.054,1.055 2.763,1.053 3.818,-0.003 1.053,-1.055 1.05,-2.765 -0.003,-3.818 L 1.906,0.789 C 1.379,0.263 0.687,0 0,0"
         style="fill:#ffffff;fill-opacity:1;fill-rule:nonzero;stroke:none"
         id="path1220-6"
         inkscape:connector-curvature="0" />
    </g>
    <g
       id="g1222-0"
       transform="matrix(0.65907413,0,0,-0.65907413,32.68065,1040.6122)">
      <path
         d="M 0,0 -0.002,0 C -1.494,0.001 -2.701,1.21 -2.7,2.701 L -2.686,24 c 0,1.491 1.209,2.698 2.7,2.698 l 0.003,0 c 1.489,-0.001 2.696,-1.21 2.696,-2.701 L 2.7,2.698 C 2.698,1.207 1.49,0 0,0"
         style="fill:#ffffff;fill-opacity:1;fill-rule:nonzero;stroke:none"
         id="path1224-6"
         inkscape:connector-curvature="0" />
    </g>
    <g
       id="g1226-2"
       transform="matrix(0.65907413,0,0,-0.65907413,18.04071,1015.7148)">
      <path
         d="m 0,0 c 0.687,0 1.38,-0.264 1.906,-0.79 l 9.691,-9.685 c 1.054,-1.054 1.054,-2.764 0,-3.819 -1.054,-1.055 -2.763,-1.054 -3.819,-10e-4 l -7.781,7.778 -7.794,-7.779 c -1.055,-1.055 -2.766,-1.052 -3.816,0.004 -1.055,1.055 -1.053,2.764 0.002,3.817 l 9.703,9.686 C -1.383,-0.263 -0.692,0 0,0"
         style="fill:#ffffff;fill-opacity:1;fill-rule:nonzero;stroke:none"
         id="path1228-6"
         inkscape:connector-curvature="0" />
    </g>
    <g
       id="g1230"
       transform="matrix(0.65907413,0,0,-0.65907413,18.04071,1015.7148)">
      <path
         d="M 0,0 0,0 C 1.49,-0.001 2.698,-1.211 2.698,-2.702 L 2.684,-24.001 c -0.001,-1.49 -1.208,-2.698 -2.7,-2.698 l -0.002,0 c -1.493,0.001 -2.699,1.211 -2.698,2.702 l 0.015,21.299 C -2.701,-1.208 -1.493,0 0,0"
         style="fill:#ffffff;fill-opacity:1;fill-rule:nonzero;stroke:none"
         id="path1232"
         inkscape:connector-curvature="0" />
    </g>
  </g>
</svg>
